<?xml version="1.0" encoding="UTF-8" standalone="no"?>
<svg width="38px" height="26px" viewBox="0 0 38 26" version="1.1" xmlns="http://www.w3.org/2000/svg" xmlns:xlink="http://www.w3.org/1999/xlink">
    <!-- Generator: Sketch 39.1 (31720) - http://www.bohemiancoding.com/sketch -->
    <title>Slice 1</title>
    <desc>Created with Sketch.</desc>
    <defs></defs>
    <g id="Page-1" stroke="none" stroke-width="1" fill="none" fill-rule="evenodd">
        <g id="Menú" transform="translate(1.000000, 1.000000)" stroke-width="2" stroke="#FFFFFF">
            <g id="Group">
                <path d="M31.9130633,0 L35.1043696,0" id="Shape"></path>
                <path d="M0,0 L25.5304506,0" id="Shape"></path>
                <path d="M3.19130633,11.1695721 L0,11.1695721" id="Shape"></path>
                <path d="M35.1043696,11.1695721 L9.57391898,11.1695721" id="Shape"></path>
                <path d="M31.9130633,22.3391443 L35.1043696,22.3391443" id="Shape"></path>
                <path d="M0,22.3391443 L25.5304506,22.3391443" id="Shape"></path>
            </g>
        </g>
    </g>
</svg>