<?xml version="1.0" encoding="UTF-8" standalone="no"?>
<svg width="25px" height="26px" viewBox="0 0 25 26" version="1.1" xmlns="http://www.w3.org/2000/svg" xmlns:xlink="http://www.w3.org/1999/xlink">
    <!-- Generator: Sketch 39.1 (31720) - http://www.bohemiancoding.com/sketch -->
    <title>Slice 1</title>
    <desc>Created with Sketch.</desc>
    <defs></defs>
    <g id="Page-1" stroke="none" stroke-width="1" fill="none" fill-rule="evenodd">
        <g id="X" transform="translate(0.000000, 1.000000)" fill="#FFFFFF">
            <path d="M24.53125,0.46875 C23.90625,-0.15625 22.96875,-0.15625 22.34375,0.46875 L12.5,10.3125 L2.65625,0.46875 C2.03125,-0.15625 1.09375,-0.15625 0.46875,0.46875 C-0.15625,1.09375 -0.15625,2.03125 0.46875,2.65625 L10.3125,12.5 L0.46875,22.34375 C-0.15625,22.96875 -0.15625,23.90625 0.46875,24.53125 C0.78125,24.84375 1.09375,25 1.5625,25 C2.03125,25 2.34375,24.84375 2.65625,24.53125 L12.5,14.6875 L22.34375,24.53125 C22.65625,24.84375 23.125,25 23.4375,25 C23.75,25 24.21875,24.84375 24.53125,24.53125 C25.15625,23.90625 25.15625,22.96875 24.53125,22.34375 L14.6875,12.5 L24.53125,2.65625 C25.15625,2.03125 25.15625,1.09375 24.53125,0.46875 L24.53125,0.46875 Z" id="Shape"></path>
        </g>
    </g>
</svg>