<?xml version="1.0" encoding="UTF-8" standalone="no"?>
<svg width="138px" height="154px" viewBox="0 0 138 154" version="1.1" xmlns="http://www.w3.org/2000/svg" xmlns:xlink="http://www.w3.org/1999/xlink">
    <!-- Generator: Sketch 40 (33762) - http://www.bohemiancoding.com/sketch -->
    <title>Slice 1</title>
    <desc>Created with Sketch.</desc>
    <defs></defs>
    <g id="Page-1" stroke="none" stroke-width="1" fill="none" fill-rule="evenodd">
        <g id="icono" transform="translate(2.000000, 2.000000)">
            <polygon id="Stroke-1" stroke="#E61D32" stroke-width="3" points="0 37.3789037 67.0171096 0 134.037209 37.3789037 134.037209 112.138206 67.0171096 149.515615 0 112.138206"></polygon>
            <path d="M61.768206,100.71289 C61.5818272,100.71289 61.3949502,100.68897 61.2060797,100.640631 C54.8761794,99.0250166 49.7258472,96.7062458 45.8986047,93.750598 C40.7293355,89.7589037 37.8788372,84.5911296 37.4263455,78.3937874 C36.4819934,65.4085714 45.3783389,58.8354817 53.2351495,54.5597342 C53.971196,54.1570764 54.871196,54.1989369 55.5698671,54.6653821 C56.2670432,55.1313289 56.6492691,55.9451163 56.5590698,56.7808306 C56.4763455,57.5701993 56.6383056,58.2399668 56.9946179,58.5718605 C57.4431229,58.9899668 58.2648837,58.9216944 58.7148837,58.8419601 C59.8187043,58.649103 60.5243522,57.299103 60.3250166,55.7687043 C60.1690365,54.5567442 59.8515947,53.4000997 59.5152159,52.1756811 C58.9107309,49.9615615 58.2210299,47.4504319 58.4502658,44.2735216 C58.8235216,39.060897 61.6481063,34.3037542 66.8517608,30.1271761 C67.4846512,29.2117276 68.2730233,28.9984385 68.8540864,28.9859801 C69.7311628,28.9675415 70.5424585,29.4359801 71.0208638,30.2368106 C71.3866445,30.8467774 71.4434551,31.5962791 71.1728571,32.253588 C69.5333223,36.2462791 72.2193688,40.4816611 74.7603987,43.3316611 C76.6381395,45.4356478 78.6673754,47.368206 80.8147176,49.4128904 C85.6351495,54.0030897 90.6210299,58.7502658 93.6309967,65.4653821 C97.3172093,73.6884718 97.0411296,82.6296678 92.9143854,88.8000997 C89.4947841,93.9165449 84.2896346,97.5414618 76.0421262,100.551429 C74.8710299,100.981495 73.5738538,100.376512 73.1467774,99.206412 C72.7192027,98.0343189 73.3216944,96.7381395 74.4927907,96.3105648 C81.78299,93.6494352 86.3074086,90.5582392 89.160897,86.2889701 C92.431495,81.4002658 92.5645515,74.1280066 89.5112292,67.3122259 C86.8640532,61.407907 82.4133887,57.1705316 77.700598,52.6824917 C75.5836545,50.6657143 73.3934551,48.5806645 71.3916279,46.3381395 C68.58,43.1856478 66.8806645,39.957907 66.3464452,36.8607309 C64.2853156,39.3090698 63.1481063,41.8994352 62.9552492,44.5969435 C62.7833223,47.0029236 63.3115615,48.9369767 63.8721927,50.9836545 C64.2334884,52.3012625 64.6067442,53.6652159 64.8045847,55.1871429 C65.3168771,59.1220266 62.9841528,62.6821595 59.4942857,63.2901329 C57.2886379,63.6773422 55.3062458,63.1735216 53.9133887,61.8723588 C53.3831561,61.3760133 52.9570764,60.778505 52.6431229,60.1077409 C46.3780066,63.9499336 41.275515,69.0349834 41.9308306,78.0653821 C42.5706977,86.8510963 49.4328239,92.9736877 62.3263455,96.266711 C63.5343189,96.5751827 64.263887,97.8055814 63.9549169,99.0135548 C63.6927907,100.033654 62.7758472,100.71289 61.768206,100.71289" id="Fill-3" fill="#E61D32"></path>
            <path d="M68.9449834,96.3826246 C70.5287043,96.3826246 71.8124252,97.6668439 71.8124252,99.2500664 C71.8124252,100.833787 70.5287043,102.118007 68.9449834,102.118007 C67.3607641,102.118007 66.0775415,100.833787 66.0775415,99.2500664 C66.0775415,97.6668439 67.3607641,96.3826246 68.9449834,96.3826246" id="Fill-5" fill="#E61D32"></path>
            <path d="M61.3090864,87.5721429 C61.1192193,87.5721429 60.9333389,87.4759635 60.826196,87.3015449 L59.0705482,84.4056977 C58.9100831,84.1380897 58.993804,83.7917442 59.2609136,83.6302824 C59.5270266,83.4688206 59.8738704,83.5540365 60.0353322,83.8201495 L61.7919767,86.716495 C61.9529402,86.9831063 61.8677243,87.3294518 61.6021096,87.4919103 C61.5094186,87.5462292 61.4092525,87.5721429 61.3090864,87.5721429 M64.8218771,93.3653322 C64.630515,93.3653322 64.4451329,93.2681561 64.3389867,93.0937375 L62.5818439,90.1983887 C62.4218771,89.9302824 62.505598,89.5834385 62.7722093,89.4219767 C63.0398173,89.2615116 63.3856645,89.3467276 63.5481229,89.6113455 L65.3032724,92.507691 C65.4647342,92.7748007 65.3790199,93.1226412 65.1134053,93.2836047 C65.0222093,93.3389203 64.9215449,93.3653322 64.8218771,93.3653322 M68.3351661,99.1570266 C68.1428073,99.1570266 67.9569269,99.0598505 67.8507807,98.8859302 L66.0956312,95.9895847 C65.9336711,95.7224751 66.0178904,95.3761296 66.2840033,95.2146678 C66.551113,95.053206 66.8984551,95.1384219 67.0589203,95.4045349 L68.8150664,98.2998837 C68.9775249,98.5674917 68.8913123,98.9133389 68.6256977,99.0748007 C68.535,99.1301163 68.4333389,99.1570266 68.3351661,99.1570266 M71.8469601,104.949219 C71.6550997,104.949219 71.4697176,104.852043 71.3625748,104.678123 L69.6059302,101.781777 C69.4449668,101.514668 69.529186,101.167326 69.7962957,101.006362 C70.0634053,100.8449 70.4102492,100.930615 70.5712126,101.195731 L72.3273588,104.092076 C72.4893189,104.359684 72.4036047,104.706528 72.1384884,104.867492 C72.046794,104.922309 71.9456312,104.949219 71.8469601,104.949219 M74.7712126,109.772641 C74.5793522,109.772641 74.3939701,109.675465 74.2868272,109.501047 L73.1192193,107.57397 C72.9577575,107.306362 73.0419767,106.960017 73.308588,106.798555 C73.574701,106.637591 73.9215449,106.721811 74.0840033,106.988422 L75.2516113,108.915498 C75.4120764,109.182608 75.3278571,109.528953 75.0622425,109.690415 C74.9710465,109.745731 74.8698837,109.772641 74.7712126,109.772641" id="Fill-7" fill="#E61D32"></path>
            <path d="M76.3672924,109.1701 C77.535897,109.1701 78.4827409,110.116944 78.4827409,111.286545 C78.4827409,112.45515 77.535897,113.402492 76.3672924,113.402492 C75.197691,113.402492 74.2498505,112.45515 74.2498505,111.286545 C74.2498505,110.116944 75.197691,109.1701 76.3672924,109.1701" id="Fill-9" fill="#E61D32"></path>
            <path d="M59.0020764,81.362392 C60.1716777,81.362392 61.1195183,82.3097342 61.1195183,83.4793355 C61.1195183,84.6479402 60.1716777,85.5962791 59.0020764,85.5962791 C57.8334718,85.5962791 56.8856312,84.6479402 56.8856312,83.4793355 C56.8856312,82.3097342 57.8334718,81.362392 59.0020764,81.362392" id="Fill-11" fill="#E61D32"></path>
            <path d="M87.4034551,59.7362292 L82.347309,54.6815781 C82.0343522,54.3686213 81.5285382,54.3686213 81.2150831,54.6815781 L71.6031229,64.2935382 L71.5313621,64.2222757 C71.2622591,63.9521761 70.7439867,63.9556645 70.4743854,64.2267608 L69.9924917,64.7086545 C69.7228904,64.9782558 69.6665781,65.5498505 69.9356811,65.8189535 L70.3971429,66.2804153 L63.8110963,67.8133056 C63.5619269,67.8731063 63.3780399,68.0290864 63.2823588,68.2672924 L58.7066113,79.7694518 C58.5865116,80.0699502 58.6682392,80.3978571 58.888505,80.6181229 C58.9273754,80.656495 58.9861794,80.7018439 59.0325249,80.7332392 C59.3464784,80.9400498 59.7805316,80.9096512 60.0466445,80.6425415 L65.2896678,75.4010133 C65.1645847,75.0995183 65.0953156,74.7696179 65.0953156,74.4247674 C65.0953156,73.0104817 66.2409967,71.863804 67.6567774,71.863804 C69.0700664,71.863804 70.2172425,73.0104817 70.2172425,74.4247674 C70.2172425,75.8390532 69.0700664,76.9847342 67.6567774,76.9847342 C67.3139203,76.9847342 66.9890033,76.9164618 66.6880066,76.7943688 L61.4434884,82.0403821 C61.1773754,82.306495 61.13701,82.7246013 61.3433223,83.0390532 C61.3737209,83.084402 61.4100997,83.1272591 61.4474751,83.1656312 C61.6662458,83.3849003 61.9986379,83.4581561 62.2986379,83.3380565 L73.7913289,78.7757641 C74.0300332,78.6800831 74.1880066,78.4996844 74.248804,78.2475249 L75.7801993,71.6634718 L76.256113,72.1403821 C76.5262126,72.40799 77.1092691,72.3641362 77.3788704,72.0950332 L77.8602658,71.6121429 C78.1298671,71.3430399 78.122392,70.8128073 77.8522924,70.543206 L77.7924917,70.482907 L87.4054485,60.8694518 C87.7149169,60.5554983 87.7149169,60.0486877 87.4034551,59.7362292" id="Fill-13" fill="#E61D32"></path>
        </g>
    </g>
</svg>